%YAML 1.1
%TAG !u! tag:unity3d.com,2011:
--- !u!1 &1444580498636582
GameObject:
  m_ObjectHideFlags: 0
  m_CorrespondingSourceObject: {fileID: 0}
  m_PrefabInstance: {fileID: 0}
  m_PrefabAsset: {fileID: 0}
  serializedVersion: 6
  m_Component:
  - component: {fileID: 224962349899471678}
  - component: {fileID: 114960612783223818}
  - component: {fileID: 114067616188796306}
  - component: {fileID: 114780669114379898}
  - component: {fileID: 222716498770757220}
  - component: {fileID: 114740787722224624}
  - component: {fileID: 114698086836122972}
  - component: {fileID: 114190419768899344}
  m_Layer: 5
  m_Name: Button (Medium)
  m_TagString: Untagged
  m_Icon: {fileID: 0}
  m_NavMeshLayer: 0
  m_StaticEditorFlags: 0
  m_IsActive: 1
--- !u!224 &224962349899471678
RectTransform:
  m_ObjectHideFlags: 0
  m_CorrespondingSourceObject: {fileID: 0}
  m_PrefabInstance: {fileID: 0}
  m_PrefabAsset: {fileID: 0}
  m_GameObject: {fileID: 1444580498636582}
  m_LocalRotation: {x: -0, y: -0, z: -0, w: 1}
  m_LocalPosition: {x: 0, y: 0, z: 0}
  m_LocalScale: {x: 1, y: 1, z: 1}
  m_Children:
  - {fileID: 224900634863030940}
  - {fileID: 224676770287741272}
  m_Father: {fileID: 0}
  m_RootOrder: 0
  m_LocalEulerAnglesHint: {x: 0, y: 0, z: 0}
  m_AnchorMin: {x: 0.5, y: 0.5}
  m_AnchorMax: {x: 0.5, y: 0.5}
  m_AnchoredPosition: {x: 0, y: 0}
  m_SizeDelta: {x: 382, y: 172}
  m_Pivot: {x: 0.5, y: 0.5}
--- !u!114 &114960612783223818
MonoBehaviour:
  m_ObjectHideFlags: 0
  m_CorrespondingSourceObject: {fileID: 0}
  m_PrefabInstance: {fileID: 0}
  m_PrefabAsset: {fileID: 0}
  m_GameObject: {fileID: 1444580498636582}
  m_Enabled: 1
  m_EditorHideFlags: 0
  m_Script: {fileID: 11500000, guid: 4e29b1a8efbd4b44bb3f3716e73f07ff, type: 3}
  m_Name: 
  m_EditorClassIdentifier: 
  m_Navigation:
    m_Mode: 0
    m_SelectOnUp: {fileID: 0}
    m_SelectOnDown: {fileID: 0}
    m_SelectOnLeft: {fileID: 0}
    m_SelectOnRight: {fileID: 0}
  m_Transition: 1
  m_Colors:
    m_NormalColor: {r: 0.94509804, g: 0.25882354, b: 0.13725491, a: 1}
    m_HighlightedColor: {r: 0.94509804, g: 0.25882354, b: 0.13725491, a: 1}
    m_PressedColor: {r: 0.7764706, g: 0.2, b: 0.09411765, a: 1}
    m_SelectedColor: {r: 0.94509804, g: 0.25882354, b: 0.13725491, a: 1}
    m_DisabledColor: {r: 0.827451, g: 0.2784314, b: 0.1764706, a: 0.49803922}
    m_ColorMultiplier: 1
    m_FadeDuration: 0.1
  m_SpriteState:
    m_HighlightedSprite: {fileID: 0}
    m_PressedSprite: {fileID: 0}
    m_SelectedSprite: {fileID: 0}
    m_DisabledSprite: {fileID: 0}
  m_AnimationTriggers:
    m_NormalTrigger: Normal
    m_HighlightedTrigger: Highlighted
    m_PressedTrigger: Pressed
    m_SelectedTrigger: Highlighted
    m_DisabledTrigger: Disabled
  m_Interactable: 1
  m_TargetGraphic: {fileID: 114740787722224624}
  m_OnClick:
    m_PersistentCalls:
      m_Calls: []
--- !u!114 &114067616188796306
MonoBehaviour:
  m_ObjectHideFlags: 0
  m_CorrespondingSourceObject: {fileID: 0}
  m_PrefabInstance: {fileID: 0}
  m_PrefabAsset: {fileID: 0}
  m_GameObject: {fileID: 1444580498636582}
  m_Enabled: 1
  m_EditorHideFlags: 0
  m_Script: {fileID: 11500000, guid: bbcfe7a4e57d06f419b0462ad64eb0cf, type: 3}
  m_Name: 
  m_EditorClassIdentifier: 
  m_Transition: 4
  m_NormalColor: {r: 0.8666667, g: 0.77254903, b: 0.7254902, a: 1}
  m_HighlightedColor: {r: 0.9490196, g: 0.8666667, b: 0.827451, a: 1}
  m_SelectedColor: {r: 0.9490196, g: 0.8666667, b: 0.827451, a: 1}
  m_PressedColor: {r: 0.9490196, g: 0.8666667, b: 0.827451, a: 1}
  m_ActiveColor: {r: 0.9607843, g: 0.9607843, b: 0.9607843, a: 1}
  m_Duration: 0.1
  m_ColorMultiplier: 1
  m_HighlightedSprite: {fileID: 0}
  m_SelectedSprite: {fileID: 0}
  m_PressedSprite: {fileID: 0}
  m_ActiveSprite: {fileID: 0}
  m_NormalTrigger: Normal
  m_HighlightedTrigger: Highlighted
  m_SelectedTrigger: Selected
  m_PressedTrigger: Pressed
  m_ActiveBool: Active
  m_NormalAlpha: 0
  m_HighlightedAlpha: 1
  m_SelectedAlpha: 1
  m_PressedAlpha: 1
  m_ActiveAlpha: 1
  m_TargetGraphic: {fileID: 114979487825344810}
  m_TargetGameObject: {fileID: 0}
  m_TargetCanvasGroup: {fileID: 0}
  m_UseToggle: 0
  m_TargetToggle: {fileID: 0}
--- !u!114 &114780669114379898
MonoBehaviour:
  m_ObjectHideFlags: 0
  m_CorrespondingSourceObject: {fileID: 0}
  m_PrefabInstance: {fileID: 0}
  m_PrefabAsset: {fileID: 0}
  m_GameObject: {fileID: 1444580498636582}
  m_Enabled: 1
  m_EditorHideFlags: 0
  m_Script: {fileID: 11500000, guid: bbcfe7a4e57d06f419b0462ad64eb0cf, type: 3}
  m_Name: 
  m_EditorClassIdentifier: 
  m_Transition: 1
  m_NormalColor: {r: 1, g: 1, b: 1, a: 0}
  m_HighlightedColor: {r: 1, g: 1, b: 1, a: 1}
  m_SelectedColor: {r: 1, g: 1, b: 1, a: 1}
  m_PressedColor: {r: 1, g: 1, b: 1, a: 0}
  m_ActiveColor: {r: 0.9607843, g: 0.9607843, b: 0.9607843, a: 1}
  m_Duration: 0.1
  m_ColorMultiplier: 1
  m_HighlightedSprite: {fileID: 0}
  m_SelectedSprite: {fileID: 0}
  m_PressedSprite: {fileID: 0}
  m_ActiveSprite: {fileID: 0}
  m_NormalTrigger: Normal
  m_HighlightedTrigger: Highlighted
  m_SelectedTrigger: Selected
  m_PressedTrigger: Pressed
  m_ActiveBool: Active
  m_NormalAlpha: 0
  m_HighlightedAlpha: 1
  m_SelectedAlpha: 1
  m_PressedAlpha: 1
  m_ActiveAlpha: 1
  m_TargetGraphic: {fileID: 114686263208265528}
  m_TargetGameObject: {fileID: 0}
  m_TargetCanvasGroup: {fileID: 0}
  m_UseToggle: 0
  m_TargetToggle: {fileID: 0}
--- !u!222 &222716498770757220
CanvasRenderer:
  m_ObjectHideFlags: 0
  m_CorrespondingSourceObject: {fileID: 0}
  m_PrefabInstance: {fileID: 0}
  m_PrefabAsset: {fileID: 0}
  m_GameObject: {fileID: 1444580498636582}
  m_CullTransparentMesh: 0
--- !u!114 &114740787722224624
MonoBehaviour:
  m_ObjectHideFlags: 0
  m_CorrespondingSourceObject: {fileID: 0}
  m_PrefabInstance: {fileID: 0}
  m_PrefabAsset: {fileID: 0}
  m_GameObject: {fileID: 1444580498636582}
  m_Enabled: 1
  m_EditorHideFlags: 0
  m_Script: {fileID: 11500000, guid: fe87c0e1cc204ed48ad3b37840f39efc, type: 3}
  m_Name: 
  m_EditorClassIdentifier: 
  m_Material: {fileID: 0}
  m_Color: {r: 1, g: 1, b: 1, a: 1}
  m_RaycastTarget: 1
  m_OnCullStateChanged:
    m_PersistentCalls:
      m_Calls: []
  m_Sprite: {fileID: 21300000, guid: f011ed90a4dbdd446bb9cafec2fce236, type: 3}
  m_Type: 0
  m_PreserveAspect: 0
  m_FillCenter: 1
  m_FillMethod: 4
  m_FillAmount: 1
  m_FillClockwise: 1
  m_FillOrigin: 0
  m_UseSpriteMesh: 0
  m_PixelsPerUnitMultiplier: 1
--- !u!114 &114698086836122972
MonoBehaviour:
  m_ObjectHideFlags: 0
  m_CorrespondingSourceObject: {fileID: 0}
  m_PrefabInstance: {fileID: 0}
  m_PrefabAsset: {fileID: 0}
  m_GameObject: {fileID: 1444580498636582}
  m_Enabled: 1
  m_EditorHideFlags: 0
  m_Script: {fileID: 11500000, guid: b5072f5d59a22bc43ae572a830be8a88, type: 3}
  m_Name: 
  m_EditorClassIdentifier: 
  m_ElementType: 1
  m_Shade: 0
--- !u!114 &114190419768899344
MonoBehaviour:
  m_ObjectHideFlags: 0
  m_CorrespondingSourceObject: {fileID: 0}
  m_PrefabInstance: {fileID: 0}
  m_PrefabAsset: {fileID: 0}
  m_GameObject: {fileID: 1444580498636582}
  m_Enabled: 1
  m_EditorHideFlags: 0
  m_Script: {fileID: 11500000, guid: d2e1ce3fe4b4851478e36a2f9a4db54b, type: 3}
  m_Name: 
  m_EditorClassIdentifier: 
--- !u!1 &1567779082334450
GameObject:
  m_ObjectHideFlags: 0
  m_CorrespondingSourceObject: {fileID: 0}
  m_PrefabInstance: {fileID: 0}
  m_PrefabAsset: {fileID: 0}
  serializedVersion: 6
  m_Component:
  - component: {fileID: 224676770287741272}
  - component: {fileID: 222803518940778872}
  - component: {fileID: 114979487825344810}
  - component: {fileID: 114593930259813620}
  m_Layer: 5
  m_Name: Text
  m_TagString: Untagged
  m_Icon: {fileID: 0}
  m_NavMeshLayer: 0
  m_StaticEditorFlags: 0
  m_IsActive: 1
--- !u!224 &224676770287741272
RectTransform:
  m_ObjectHideFlags: 0
  m_CorrespondingSourceObject: {fileID: 0}
  m_PrefabInstance: {fileID: 0}
  m_PrefabAsset: {fileID: 0}
  m_GameObject: {fileID: 1567779082334450}
  m_LocalRotation: {x: 0, y: 0, z: 0, w: 1}
  m_LocalPosition: {x: 0, y: 0, z: 0}
  m_LocalScale: {x: 1, y: 1, z: 1}
  m_Children: []
  m_Father: {fileID: 224962349899471678}
  m_RootOrder: 1
  m_LocalEulerAnglesHint: {x: 0, y: 0, z: 0}
  m_AnchorMin: {x: 0, y: 1}
  m_AnchorMax: {x: 1, y: 1}
  m_AnchoredPosition: {x: 32, y: -48}
  m_SizeDelta: {x: -78, y: 92}
  m_Pivot: {x: 0, y: 1}
--- !u!222 &222803518940778872
CanvasRenderer:
  m_ObjectHideFlags: 0
  m_CorrespondingSourceObject: {fileID: 0}
  m_PrefabInstance: {fileID: 0}
  m_PrefabAsset: {fileID: 0}
  m_GameObject: {fileID: 1567779082334450}
  m_CullTransparentMesh: 0
--- !u!114 &114979487825344810
MonoBehaviour:
  m_ObjectHideFlags: 0
  m_CorrespondingSourceObject: {fileID: 0}
  m_PrefabInstance: {fileID: 0}
  m_PrefabAsset: {fileID: 0}
  m_GameObject: {fileID: 1567779082334450}
  m_Enabled: 1
  m_EditorHideFlags: 0
  m_Script: {fileID: 11500000, guid: 5f7201a12d95ffc409449d95f23cf332, type: 3}
  m_Name: 
  m_EditorClassIdentifier: 
  m_Material: {fileID: 0}
  m_Color: {r: 0.8666667, g: 0.77254903, b: 0.7254902, a: 1}
  m_RaycastTarget: 0
  m_OnCullStateChanged:
    m_PersistentCalls:
      m_Calls: []
  m_FontData:
    m_Font: {fileID: 12800000, guid: 79cb662f273c9614684a8b9febeeb553, type: 3}
    m_FontSize: 56
    m_FontStyle: 0
    m_BestFit: 0
    m_MinSize: 5
    m_MaxSize: 73
    m_Alignment: 1
    m_AlignByGeometry: 0
    m_RichText: 1
    m_HorizontalOverflow: 0
    m_VerticalOverflow: 0
    m_LineSpacing: 1
  m_Text: delete
--- !u!114 &114593930259813620
MonoBehaviour:
  m_ObjectHideFlags: 0
  m_CorrespondingSourceObject: {fileID: 0}
  m_PrefabInstance: {fileID: 0}
  m_PrefabAsset: {fileID: 0}
  m_GameObject: {fileID: 1567779082334450}
  m_Enabled: 1
  m_EditorHideFlags: 0
  m_Script: {fileID: 11500000, guid: e19747de3f5aca642ab2be37e372fb86, type: 3}
  m_Name: 
  m_EditorClassIdentifier: 
  m_EffectColor: {r: 0, g: 0, b: 0, a: 0.2}
  m_EffectDistance: {x: 4, y: -4}
  m_UseGraphicAlpha: 1
--- !u!1 &1727029693364128
GameObject:
  m_ObjectHideFlags: 0
  m_CorrespondingSourceObject: {fileID: 0}
  m_PrefabInstance: {fileID: 0}
  m_PrefabAsset: {fileID: 0}
  serializedVersion: 6
  m_Component:
  - component: {fileID: 224900634863030940}
  - component: {fileID: 222590152968084894}
  - component: {fileID: 114686263208265528}
  - component: {fileID: 114861385013532418}
  m_Layer: 5
  m_Name: Hover Overlay
  m_TagString: Untagged
  m_Icon: {fileID: 0}
  m_NavMeshLayer: 0
  m_StaticEditorFlags: 0
  m_IsActive: 1
--- !u!224 &224900634863030940
RectTransform:
  m_ObjectHideFlags: 0
  m_CorrespondingSourceObject: {fileID: 0}
  m_PrefabInstance: {fileID: 0}
  m_PrefabAsset: {fileID: 0}
  m_GameObject: {fileID: 1727029693364128}
  m_LocalRotation: {x: -0, y: -0, z: -0, w: 1}
  m_LocalPosition: {x: 0, y: 0, z: 0}
  m_LocalScale: {x: 1, y: 1, z: 1}
  m_Children: []
  m_Father: {fileID: 224962349899471678}
  m_RootOrder: 0
  m_LocalEulerAnglesHint: {x: 0, y: 0, z: 0}
  m_AnchorMin: {x: 0, y: 0}
  m_AnchorMax: {x: 1, y: 1}
  m_AnchoredPosition: {x: 46, y: -20}
  m_SizeDelta: {x: -92, y: -60}
  m_Pivot: {x: 0, y: 1}
--- !u!222 &222590152968084894
CanvasRenderer:
  m_ObjectHideFlags: 0
  m_CorrespondingSourceObject: {fileID: 0}
  m_PrefabInstance: {fileID: 0}
  m_PrefabAsset: {fileID: 0}
  m_GameObject: {fileID: 1727029693364128}
  m_CullTransparentMesh: 0
--- !u!114 &114686263208265528
MonoBehaviour:
  m_ObjectHideFlags: 0
  m_CorrespondingSourceObject: {fileID: 0}
  m_PrefabInstance: {fileID: 0}
  m_PrefabAsset: {fileID: 0}
  m_GameObject: {fileID: 1727029693364128}
  m_Enabled: 1
  m_EditorHideFlags: 0
  m_Script: {fileID: 11500000, guid: fe87c0e1cc204ed48ad3b37840f39efc, type: 3}
  m_Name: 
  m_EditorClassIdentifier: 
  m_Material: {fileID: 0}
  m_Color: {r: 1, g: 0.3764706, b: 0.09411765, a: 1}
  m_RaycastTarget: 0
  m_OnCullStateChanged:
    m_PersistentCalls:
      m_Calls: []
  m_Sprite: {fileID: 21300000, guid: 01d36bc17c07254459941c5b909c9ef4, type: 3}
  m_Type: 1
  m_PreserveAspect: 0
  m_FillCenter: 1
  m_FillMethod: 4
  m_FillAmount: 1
  m_FillClockwise: 1
  m_FillOrigin: 0
  m_UseSpriteMesh: 0
  m_PixelsPerUnitMultiplier: 1
--- !u!114 &114861385013532418
MonoBehaviour:
  m_ObjectHideFlags: 0
  m_CorrespondingSourceObject: {fileID: 0}
  m_PrefabInstance: {fileID: 0}
  m_PrefabAsset: {fileID: 0}
  m_GameObject: {fileID: 1727029693364128}
  m_Enabled: 1
  m_EditorHideFlags: 0
  m_Script: {fileID: 11500000, guid: b5072f5d59a22bc43ae572a830be8a88, type: 3}
  m_Name: 
  m_EditorClassIdentifier: 
  m_ElementType: 0
  m_Shade: 0
