%YAML 1.1
%TAG !u! tag:unity3d.com,2011:
--- !u!1 &1192453715828294
GameObject:
  m_ObjectHideFlags: 0
  m_CorrespondingSourceObject: {fileID: 0}
  m_PrefabInstance: {fileID: 0}
  m_PrefabAsset: {fileID: 0}
  serializedVersion: 6
  m_Component:
  - component: {fileID: 224017168212667338}
  - component: {fileID: 222832659901150554}
  - component: {fileID: 114561704397611696}
  - component: {fileID: 114203118042108738}
  m_Layer: 5
  m_Name: Text
  m_TagString: Untagged
  m_Icon: {fileID: 0}
  m_NavMeshLayer: 0
  m_StaticEditorFlags: 0
  m_IsActive: 1
--- !u!224 &224017168212667338
RectTransform:
  m_ObjectHideFlags: 0
  m_CorrespondingSourceObject: {fileID: 0}
  m_PrefabInstance: {fileID: 0}
  m_PrefabAsset: {fileID: 0}
  m_GameObject: {fileID: 1192453715828294}
  m_LocalRotation: {x: 0, y: 0, z: 0, w: 1}
  m_LocalPosition: {x: 0, y: 0, z: 0}
  m_LocalScale: {x: 1, y: 1, z: 1}
  m_Children: []
  m_Father: {fileID: 224921010281380966}
  m_RootOrder: 1
  m_LocalEulerAnglesHint: {x: 0, y: 0, z: 0}
  m_AnchorMin: {x: 0, y: 1}
  m_AnchorMax: {x: 1, y: 1}
  m_AnchoredPosition: {x: 92, y: -58}
  m_SizeDelta: {x: -184, y: 92}
  m_Pivot: {x: 0, y: 1}
--- !u!222 &222832659901150554
CanvasRenderer:
  m_ObjectHideFlags: 0
  m_CorrespondingSourceObject: {fileID: 0}
  m_PrefabInstance: {fileID: 0}
  m_PrefabAsset: {fileID: 0}
  m_GameObject: {fileID: 1192453715828294}
  m_CullTransparentMesh: 0
--- !u!114 &114561704397611696
MonoBehaviour:
  m_ObjectHideFlags: 0
  m_CorrespondingSourceObject: {fileID: 0}
  m_PrefabInstance: {fileID: 0}
  m_PrefabAsset: {fileID: 0}
  m_GameObject: {fileID: 1192453715828294}
  m_Enabled: 1
  m_EditorHideFlags: 0
  m_Script: {fileID: 11500000, guid: 5f7201a12d95ffc409449d95f23cf332, type: 3}
  m_Name: 
  m_EditorClassIdentifier: 
  m_Material: {fileID: 0}
  m_Color: {r: 0.8666667, g: 0.77254903, b: 0.7254902, a: 1}
  m_RaycastTarget: 0
  m_OnCullStateChanged:
    m_PersistentCalls:
      m_Calls: []
  m_FontData:
    m_Font: {fileID: 12800000, guid: 79cb662f273c9614684a8b9febeeb553, type: 3}
    m_FontSize: 72
    m_FontStyle: 0
    m_BestFit: 0
    m_MinSize: 7
    m_MaxSize: 73
    m_Alignment: 1
    m_AlignByGeometry: 0
    m_RichText: 1
    m_HorizontalOverflow: 0
    m_VerticalOverflow: 0
    m_LineSpacing: 1
  m_Text: login
--- !u!114 &114203118042108738
MonoBehaviour:
  m_ObjectHideFlags: 0
  m_CorrespondingSourceObject: {fileID: 0}
  m_PrefabInstance: {fileID: 0}
  m_PrefabAsset: {fileID: 0}
  m_GameObject: {fileID: 1192453715828294}
  m_Enabled: 1
  m_EditorHideFlags: 0
  m_Script: {fileID: 11500000, guid: e19747de3f5aca642ab2be37e372fb86, type: 3}
  m_Name: 
  m_EditorClassIdentifier: 
  m_EffectColor: {r: 0, g: 0, b: 0, a: 0.3}
  m_EffectDistance: {x: 2, y: -2}
  m_UseGraphicAlpha: 1
--- !u!1 &1309109367406908
GameObject:
  m_ObjectHideFlags: 0
  m_CorrespondingSourceObject: {fileID: 0}
  m_PrefabInstance: {fileID: 0}
  m_PrefabAsset: {fileID: 0}
  serializedVersion: 6
  m_Component:
  - component: {fileID: 224900022349387362}
  - component: {fileID: 222481610402162186}
  - component: {fileID: 114753769815382748}
  - component: {fileID: 114558745507300972}
  m_Layer: 5
  m_Name: Hover Overlay
  m_TagString: Untagged
  m_Icon: {fileID: 0}
  m_NavMeshLayer: 0
  m_StaticEditorFlags: 0
  m_IsActive: 1
--- !u!224 &224900022349387362
RectTransform:
  m_ObjectHideFlags: 0
  m_CorrespondingSourceObject: {fileID: 0}
  m_PrefabInstance: {fileID: 0}
  m_PrefabAsset: {fileID: 0}
  m_GameObject: {fileID: 1309109367406908}
  m_LocalRotation: {x: 0, y: 0, z: 0, w: 1}
  m_LocalPosition: {x: 0, y: 0, z: 0}
  m_LocalScale: {x: 1, y: 1, z: 1}
  m_Children: []
  m_Father: {fileID: 224921010281380966}
  m_RootOrder: 0
  m_LocalEulerAnglesHint: {x: 0, y: 0, z: 0}
  m_AnchorMin: {x: 0, y: 0}
  m_AnchorMax: {x: 1, y: 1}
  m_AnchoredPosition: {x: 62, y: -34}
  m_SizeDelta: {x: -124, y: -88}
  m_Pivot: {x: 0, y: 1}
--- !u!222 &222481610402162186
CanvasRenderer:
  m_ObjectHideFlags: 0
  m_CorrespondingSourceObject: {fileID: 0}
  m_PrefabInstance: {fileID: 0}
  m_PrefabAsset: {fileID: 0}
  m_GameObject: {fileID: 1309109367406908}
  m_CullTransparentMesh: 0
--- !u!114 &114753769815382748
MonoBehaviour:
  m_ObjectHideFlags: 0
  m_CorrespondingSourceObject: {fileID: 0}
  m_PrefabInstance: {fileID: 0}
  m_PrefabAsset: {fileID: 0}
  m_GameObject: {fileID: 1309109367406908}
  m_Enabled: 1
  m_EditorHideFlags: 0
  m_Script: {fileID: 11500000, guid: fe87c0e1cc204ed48ad3b37840f39efc, type: 3}
  m_Name: 
  m_EditorClassIdentifier: 
  m_Material: {fileID: 0}
  m_Color: {r: 1, g: 0.3764706, b: 0.09411765, a: 1}
  m_RaycastTarget: 0
  m_OnCullStateChanged:
    m_PersistentCalls:
      m_Calls: []
  m_Sprite: {fileID: 21300000, guid: 01d36bc17c07254459941c5b909c9ef4, type: 3}
  m_Type: 1
  m_PreserveAspect: 0
  m_FillCenter: 1
  m_FillMethod: 4
  m_FillAmount: 1
  m_FillClockwise: 1
  m_FillOrigin: 0
  m_UseSpriteMesh: 0
  m_PixelsPerUnitMultiplier: 1
--- !u!114 &114558745507300972
MonoBehaviour:
  m_ObjectHideFlags: 0
  m_CorrespondingSourceObject: {fileID: 0}
  m_PrefabInstance: {fileID: 0}
  m_PrefabAsset: {fileID: 0}
  m_GameObject: {fileID: 1309109367406908}
  m_Enabled: 1
  m_EditorHideFlags: 0
  m_Script: {fileID: 11500000, guid: b5072f5d59a22bc43ae572a830be8a88, type: 3}
  m_Name: 
  m_EditorClassIdentifier: 
  m_ElementType: 0
  m_Shade: 0
--- !u!1 &1759623405243970
GameObject:
  m_ObjectHideFlags: 0
  m_CorrespondingSourceObject: {fileID: 0}
  m_PrefabInstance: {fileID: 0}
  m_PrefabAsset: {fileID: 0}
  serializedVersion: 6
  m_Component:
  - component: {fileID: 224921010281380966}
  - component: {fileID: 114399127144034276}
  - component: {fileID: 114026028910443942}
  - component: {fileID: 114477237200004924}
  - component: {fileID: 114383948031976932}
  - component: {fileID: 222211996415162374}
  - component: {fileID: 114368478272617902}
  - component: {fileID: 95611095003373436}
  - component: {fileID: 114679882636903004}
  - component: {fileID: 114256948940775310}
  m_Layer: 5
  m_Name: Button (Large)
  m_TagString: Untagged
  m_Icon: {fileID: 0}
  m_NavMeshLayer: 0
  m_StaticEditorFlags: 0
  m_IsActive: 1
--- !u!224 &224921010281380966
RectTransform:
  m_ObjectHideFlags: 0
  m_CorrespondingSourceObject: {fileID: 0}
  m_PrefabInstance: {fileID: 0}
  m_PrefabAsset: {fileID: 0}
  m_GameObject: {fileID: 1759623405243970}
  m_LocalRotation: {x: 0, y: 0, z: 0, w: 1}
  m_LocalPosition: {x: 0, y: 0, z: 0}
  m_LocalScale: {x: 1, y: 1, z: 1}
  m_Children:
  - {fileID: 224900022349387362}
  - {fileID: 224017168212667338}
  m_Father: {fileID: 0}
  m_RootOrder: 0
  m_LocalEulerAnglesHint: {x: 0, y: 0, z: 0}
  m_AnchorMin: {x: 0.5, y: 0.5}
  m_AnchorMax: {x: 0.5, y: 0.5}
  m_AnchoredPosition: {x: 0, y: 0}
  m_SizeDelta: {x: 578, y: 222}
  m_Pivot: {x: 0.5, y: 0.5}
--- !u!114 &114399127144034276
MonoBehaviour:
  m_ObjectHideFlags: 0
  m_CorrespondingSourceObject: {fileID: 0}
  m_PrefabInstance: {fileID: 0}
  m_PrefabAsset: {fileID: 0}
  m_GameObject: {fileID: 1759623405243970}
  m_Enabled: 1
  m_EditorHideFlags: 0
  m_Script: {fileID: 11500000, guid: 4e29b1a8efbd4b44bb3f3716e73f07ff, type: 3}
  m_Name: 
  m_EditorClassIdentifier: 
  m_Navigation:
    m_Mode: 0
    m_SelectOnUp: {fileID: 0}
    m_SelectOnDown: {fileID: 0}
    m_SelectOnLeft: {fileID: 0}
    m_SelectOnRight: {fileID: 0}
  m_Transition: 1
  m_Colors:
    m_NormalColor: {r: 0.94509804, g: 0.25882354, b: 0.13725491, a: 1}
    m_HighlightedColor: {r: 0.94509804, g: 0.25882354, b: 0.13725491, a: 1}
    m_PressedColor: {r: 0.7764706, g: 0.2, b: 0.09411765, a: 1}
    m_SelectedColor: {r: 0.94509804, g: 0.25882354, b: 0.13725491, a: 1}
    m_DisabledColor: {r: 0.827451, g: 0.2784314, b: 0.1764706, a: 0.49803922}
    m_ColorMultiplier: 1
    m_FadeDuration: 0.1
  m_SpriteState:
    m_HighlightedSprite: {fileID: 0}
    m_PressedSprite: {fileID: 0}
    m_SelectedSprite: {fileID: 0}
    m_DisabledSprite: {fileID: 0}
  m_AnimationTriggers:
    m_NormalTrigger: Normal
    m_HighlightedTrigger: Highlighted
    m_PressedTrigger: Pressed
    m_SelectedTrigger: Highlighted
    m_DisabledTrigger: Disabled
  m_Interactable: 1
  m_TargetGraphic: {fileID: 114368478272617902}
  m_OnClick:
    m_PersistentCalls:
      m_Calls: []
--- !u!114 &114026028910443942
MonoBehaviour:
  m_ObjectHideFlags: 0
  m_CorrespondingSourceObject: {fileID: 0}
  m_PrefabInstance: {fileID: 0}
  m_PrefabAsset: {fileID: 0}
  m_GameObject: {fileID: 1759623405243970}
  m_Enabled: 1
  m_EditorHideFlags: 0
  m_Script: {fileID: 11500000, guid: bbcfe7a4e57d06f419b0462ad64eb0cf, type: 3}
  m_Name: 
  m_EditorClassIdentifier: 
  m_Transition: 1
  m_NormalColor: {r: 1, g: 1, b: 1, a: 0}
  m_HighlightedColor: {r: 1, g: 1, b: 1, a: 1}
  m_SelectedColor: {r: 1, g: 1, b: 1, a: 1}
  m_PressedColor: {r: 1, g: 1, b: 1, a: 0.5}
  m_ActiveColor: {r: 0.9607843, g: 0.9607843, b: 0.9607843, a: 1}
  m_Duration: 0.1
  m_ColorMultiplier: 1
  m_HighlightedSprite: {fileID: 0}
  m_SelectedSprite: {fileID: 0}
  m_PressedSprite: {fileID: 0}
  m_ActiveSprite: {fileID: 0}
  m_NormalTrigger: Normal
  m_HighlightedTrigger: Highlighted
  m_SelectedTrigger: Selected
  m_PressedTrigger: Pressed
  m_ActiveBool: Active
  m_NormalAlpha: 0
  m_HighlightedAlpha: 1
  m_SelectedAlpha: 1
  m_PressedAlpha: 1
  m_ActiveAlpha: 1
  m_TargetGraphic: {fileID: 114753769815382748}
  m_TargetGameObject: {fileID: 0}
  m_TargetCanvasGroup: {fileID: 0}
  m_UseToggle: 0
  m_TargetToggle: {fileID: 0}
--- !u!114 &114477237200004924
MonoBehaviour:
  m_ObjectHideFlags: 0
  m_CorrespondingSourceObject: {fileID: 0}
  m_PrefabInstance: {fileID: 0}
  m_PrefabAsset: {fileID: 0}
  m_GameObject: {fileID: 1759623405243970}
  m_Enabled: 1
  m_EditorHideFlags: 0
  m_Script: {fileID: 11500000, guid: bbcfe7a4e57d06f419b0462ad64eb0cf, type: 3}
  m_Name: 
  m_EditorClassIdentifier: 
  m_Transition: 4
  m_NormalColor: {r: 0.8666667, g: 0.77254903, b: 0.7254902, a: 1}
  m_HighlightedColor: {r: 0.9490196, g: 0.8666667, b: 0.827451, a: 1}
  m_SelectedColor: {r: 0.9490196, g: 0.8666667, b: 0.827451, a: 1}
  m_PressedColor: {r: 0.8666667, g: 0.7921569, b: 0.75686276, a: 1}
  m_ActiveColor: {r: 0.9607843, g: 0.9607843, b: 0.9607843, a: 1}
  m_Duration: 0.1
  m_ColorMultiplier: 1
  m_HighlightedSprite: {fileID: 0}
  m_SelectedSprite: {fileID: 0}
  m_PressedSprite: {fileID: 0}
  m_ActiveSprite: {fileID: 0}
  m_NormalTrigger: Normal
  m_HighlightedTrigger: Highlighted
  m_SelectedTrigger: Selected
  m_PressedTrigger: Pressed
  m_ActiveBool: Active
  m_NormalAlpha: 0
  m_HighlightedAlpha: 1
  m_SelectedAlpha: 1
  m_PressedAlpha: 1
  m_ActiveAlpha: 1
  m_TargetGraphic: {fileID: 114561704397611696}
  m_TargetGameObject: {fileID: 0}
  m_TargetCanvasGroup: {fileID: 0}
  m_UseToggle: 0
  m_TargetToggle: {fileID: 0}
--- !u!114 &114383948031976932
MonoBehaviour:
  m_ObjectHideFlags: 0
  m_CorrespondingSourceObject: {fileID: 0}
  m_PrefabInstance: {fileID: 0}
  m_PrefabAsset: {fileID: 0}
  m_GameObject: {fileID: 1759623405243970}
  m_Enabled: 1
  m_EditorHideFlags: 0
  m_Script: {fileID: 11500000, guid: 25f9e1f83b068fd49a4db6f1813c4a06, type: 3}
  m_Name: 
  m_EditorClassIdentifier: 
  m_Transition: 3
  m_NormalColor: {r: 1, g: 1, b: 1, a: 1}
  m_PressedColor: {r: 0.78431374, g: 0.78431374, b: 0.78431374, a: 1}
  m_Duration: 0.1
  m_ColorMultiplier: 1
  m_PressedSprite: {fileID: 0}
  m_NormalTrigger: Normal
  m_PressedTrigger: Pressed
  m_TargetGraphic: {fileID: 0}
  m_TargetGameObject: {fileID: 1759623405243970}
--- !u!222 &222211996415162374
CanvasRenderer:
  m_ObjectHideFlags: 0
  m_CorrespondingSourceObject: {fileID: 0}
  m_PrefabInstance: {fileID: 0}
  m_PrefabAsset: {fileID: 0}
  m_GameObject: {fileID: 1759623405243970}
  m_CullTransparentMesh: 0
--- !u!114 &114368478272617902
MonoBehaviour:
  m_ObjectHideFlags: 0
  m_CorrespondingSourceObject: {fileID: 0}
  m_PrefabInstance: {fileID: 0}
  m_PrefabAsset: {fileID: 0}
  m_GameObject: {fileID: 1759623405243970}
  m_Enabled: 1
  m_EditorHideFlags: 0
  m_Script: {fileID: 11500000, guid: fe87c0e1cc204ed48ad3b37840f39efc, type: 3}
  m_Name: 
  m_EditorClassIdentifier: 
  m_Material: {fileID: 0}
  m_Color: {r: 1, g: 1, b: 1, a: 1}
  m_RaycastTarget: 1
  m_OnCullStateChanged:
    m_PersistentCalls:
      m_Calls: []
  m_Sprite: {fileID: 21300000, guid: f011ed90a4dbdd446bb9cafec2fce236, type: 3}
  m_Type: 0
  m_PreserveAspect: 0
  m_FillCenter: 1
  m_FillMethod: 4
  m_FillAmount: 1
  m_FillClockwise: 1
  m_FillOrigin: 0
  m_UseSpriteMesh: 0
  m_PixelsPerUnitMultiplier: 1
--- !u!95 &95611095003373436
Animator:
  serializedVersion: 3
  m_ObjectHideFlags: 0
  m_CorrespondingSourceObject: {fileID: 0}
  m_PrefabInstance: {fileID: 0}
  m_PrefabAsset: {fileID: 0}
  m_GameObject: {fileID: 1759623405243970}
  m_Enabled: 1
  m_Avatar: {fileID: 0}
  m_Controller: {fileID: 9100000, guid: 661739dc42390b640b3b4a7fcd0a3a3c, type: 2}
  m_CullingMode: 0
  m_UpdateMode: 0
  m_ApplyRootMotion: 0
  m_LinearVelocityBlending: 0
  m_WarningMessage: 
  m_HasTransformHierarchy: 1
  m_AllowConstantClipSamplingOptimization: 1
  m_KeepAnimatorControllerStateOnDisable: 0
--- !u!114 &114679882636903004
MonoBehaviour:
  m_ObjectHideFlags: 0
  m_CorrespondingSourceObject: {fileID: 0}
  m_PrefabInstance: {fileID: 0}
  m_PrefabAsset: {fileID: 0}
  m_GameObject: {fileID: 1759623405243970}
  m_Enabled: 1
  m_EditorHideFlags: 0
  m_Script: {fileID: 11500000, guid: b5072f5d59a22bc43ae572a830be8a88, type: 3}
  m_Name: 
  m_EditorClassIdentifier: 
  m_ElementType: 1
  m_Shade: 0
--- !u!114 &114256948940775310
MonoBehaviour:
  m_ObjectHideFlags: 0
  m_CorrespondingSourceObject: {fileID: 0}
  m_PrefabInstance: {fileID: 0}
  m_PrefabAsset: {fileID: 0}
  m_GameObject: {fileID: 1759623405243970}
  m_Enabled: 1
  m_EditorHideFlags: 0
  m_Script: {fileID: 11500000, guid: d2e1ce3fe4b4851478e36a2f9a4db54b, type: 3}
  m_Name: 
  m_EditorClassIdentifier: 
